%YAML 1.1
%TAG !u! tag:unity3d.com,2011:
--- !u!78 &1
TagManager:
  serializedVersion: 2
  tags:
  - Enemigo
  - Jugador
  - JugadorBola
  - DonaEnergia
  - EnemigoGato
  - Bala
  - Suelo
  - Mano
  layers:
  - Default
  - TransparentFX
  - Ignore Raycast
  - piso
  - Water
  - UI
  - capaJugador
  - granja
  - 
  - 
  - 
  - 
  - 
  - 
  - 
  - 
  - 
  - 
  - 
  - 
  - 
  - 
  - 
  - 
  - 
  - 
  - 
  - 
  - 
  - 
  - 
  - 
  m_SortingLayers:
  - name: Default
    uniqueID: 0
    locked: 0
