%YAML 1.1
%TAG !u! tag:unity3d.com,2011:
--- !u!1 &2643865880425131882
GameObject:
  m_ObjectHideFlags: 0
  m_CorrespondingSourceObject: {fileID: 0}
  m_PrefabInstance: {fileID: 0}
  m_PrefabAsset: {fileID: 0}
  serializedVersion: 6
  m_Component:
  - component: {fileID: 2643865880425131880}
  - component: {fileID: 2643865880425131883}
  m_Layer: 0
  m_Name: GestorDeAudio
  m_TagString: Untagged
  m_Icon: {fileID: 0}
  m_NavMeshLayer: 0
  m_StaticEditorFlags: 0
  m_IsActive: 1
--- !u!4 &2643865880425131880
Transform:
  m_ObjectHideFlags: 0
  m_CorrespondingSourceObject: {fileID: 0}
  m_PrefabInstance: {fileID: 0}
  m_PrefabAsset: {fileID: 0}
  m_GameObject: {fileID: 2643865880425131882}
  m_LocalRotation: {x: 0, y: 0, z: 0, w: 1}
  m_LocalPosition: {x: -146.57361, y: -7.0067487, z: 205.17238}
  m_LocalScale: {x: 1, y: 1, z: 1}
  m_ConstrainProportionsScale: 0
  m_Children: []
  m_Father: {fileID: 0}
  m_RootOrder: 0
  m_LocalEulerAnglesHint: {x: 0, y: 0, z: 0}
--- !u!114 &2643865880425131883
MonoBehaviour:
  m_ObjectHideFlags: 0
  m_CorrespondingSourceObject: {fileID: 0}
  m_PrefabInstance: {fileID: 0}
  m_PrefabAsset: {fileID: 0}
  m_GameObject: {fileID: 2643865880425131882}
  m_Enabled: 1
  m_EditorHideFlags: 0
  m_Script: {fileID: 11500000, guid: 278929ced3f264fca9da95b893a6d326, type: 3}
  m_Name: 
  m_EditorClassIdentifier: 
  sonidos:
  - Nombre: Musica
    ClipSonido: {fileID: 8300000, guid: e86a2af9378244fcd83621a9f7b86135, type: 3}
    Volumen: 0.1
    pitch: 1
    repetir: 1
    FuenteAudio: {fileID: 0}
  - Nombre: Sonido Chancho
    ClipSonido: {fileID: 8300000, guid: cc9dc3b1884b84ca186435bb0fadea02, type: 3}
    Volumen: 0.845
    pitch: 1
    repetir: 0
    FuenteAudio: {fileID: 0}
  - Nombre: Sonido Pop
    ClipSonido: {fileID: 8300000, guid: 8cb2cddef81544662981c4daa84ccaec, type: 3}
    Volumen: 0.845
    pitch: 1
    repetir: 0
    FuenteAudio: {fileID: 0}
